…
      degree=col_character(),
      season=col_character(),
      decision=col_character(),
      decision_date=col_character(),
      decision_timestamp=col_double(),
      ugrad_gpa=col_double(),
      gre_verbal=col_double(),
      gre_quant=col_double(),
      gre_writing=col_double(),
      is_new_gre=col_logical(),
      status=col_character(),
      comments=col_character())))
```

    ## # A tibble: 345,303 x 14
    ##    uni_name major degree season decision decision_date decision_timest…
    ##    <chr>    <chr> <chr>  <chr>  <chr>    <chr>                    <dbl>
    ##  1 Univers… Ms. … MS     S16    Accepted (5, 11, 2015)       1446699600
    ##  2 Vanderb… Educ… MS     F16    Other    <NA>                        NA
    ##  3 Univers… Publ… MS     F16    Accepted (16, 11, 201…       1447650000
    ##  4 Tufts U… Comp… PhD    S16    Accepted (16, 11, 201…       1447650000
    ##  5 Univers… Theo… MS     F16    Accepted (16, 11, 201…       1447650000
    ##  6 Univers… Mast… MS     S16    Rejected (14, 11, 201…       1447477200
    ##  7 Univers… Publ… MS     F16    Accepted (12, 11, 201…       1447304400
    ##  8 Tufts U… MALD  MS     S16    Accepted (7, 11, 2015)       1446872400
    ##  9 New Yor… Fina… MS     S16    Accepted (15, 11, 201…       1447563600
    ## 10 Appalac… Comm… MS     S16    Accepted (13, 11, 201…       1447390800
    ## # … with 345,293 more rows, and 7 more variables: ugrad_gpa <dbl>,
    ## #   gre_verbal <dbl>, gre_quant <dbl>, gre_writing <dbl>,
    ## #   is_new_gre <lgl>, status <chr>, comments <chr>
…
    ## [1] row      col      expected actual  
    ## <0 rows> (or 0-length row.names)

Data Cleaning
=============

``` r
grad <- grad %>% filter(str_detect(major, "Computer")|str_detect(major, "computer"))

#,degree=="PhD") %>% mutate(research=(str_detect(comments, "research")|str_detect(comments, "Research"))&!str_detect(comments, "No research")&!str_detect(comments, "no research")&!is.na(comments))
grad %>% group_by(uni_name) %>% count(uni_name) %>% arrange(desc(n))
```

    ## # A tibble: 416 x 2
    ## # Groups:   uni_name [416]
    ##    uni_name                                            n
    ##    <chr>                                           <int>
    ##  1 Carnegie Mellon University (CMU)                 1414
    ##  2 Georgia Institute Of Technology (GTech)           985
    ##  3 University Of California, San Diego (UCSD)        954
    ##  4 University Of Illinois, Urbana-Champaign (UIUC)   954
    ##  5 Stanford University                               914
    ##  6 University Of California, Berkeley (UCB)          844
    ##  7 Purdue University                                 745
    ##  8 University Of Washington, Seattle (UW)            713
    ##  9 University Of Texas, Austin (UT Austin)           706
    ## 10 Cornell University                                674
    ## # … with 406 more rows

``` r
grad %>% group_by(uni_name,major) %>% count(uni_name, major) %>% arrange(desc(n))
```

    ## # A tibble: 2,749 x 3
    ## # Groups:   uni_name, major [2,749]
    ##    uni_name                                        major                n
    ##    <chr>                                           <chr>            <int>
    ##  1 Carnegie Mellon University (CMU)                Computer Science   776
    ##  2 Stanford University                             Computer Science   765
    ##  3 Georgia Institute Of Technology (GTech)         Computer Science   610
    ##  4 Columbia University                             Computer Science   585
    ##  5 University Of Illinois, Urbana-Champaign (UIUC) Computer Science   582
    ##  6 University Of Washington, Seattle (UW)          Computer Science   581
    ##  7 University Of California, San Diego (UCSD)      Computer Science   530
    ##  8 University Of California, Berkeley (UCB)        Computer Science   521
    ##  9 University Of California, Los Angeles (UCLA)    Computer Science   498
    ## 10 Cornell University                              Computer Science   478
    ## # … with 2,739 more rows
…
    ## The following objects are masked from 'package:dplyr':
    ## 
    ##     src, summarize

    ## The following objects are masked from 'package:base':
    ## 
    ##     format.pval, units

``` r
grad_noNA = grad %>% filter(is.na(ugrad_gpa) == FALSE, is.na(gre_verbal) ==FALSE,  is.na(gre_quant) ==FALSE, is.na(gre_writing) ==FALSE)
(grad_noNA = grad_noNA %>% mutate(gre_total = gre_verbal + gre_quant))
```

    ## # A tibble: 1,091 x 18
    ##    uni_name major degree season decision decision_date decision_timest…
    ##    <chr>    <chr> <chr>  <chr>  <chr>    <chr>                    <dbl>
    ##  1 Purdue … (Com… MS     S16    Rejected (2, 11, 2015)       1446440400
    ##  2 Univers… Comp… MS     S16    Accepted (28, 9, 2015)       1443412800
    ##  3 Univers… (Com… MS     F15    Rejected (24, 5, 2015)       1432440000
    ##  4 Carnegi… ( EC… MS     F15    Other    (27, 6, 2015)       1435377600
    ##  5 Carnegi… Elec… MS     F15    Accepted (2, 6, 2015)        1433217600
    ##  6 Univers… Elec… MS     F15    Accepted (14, 4, 2015)       1428984000
    ##  7 Univers… Comp… PhD    F15    Other    (20, 4, 2015)       1429502400
    ##  8 Cornell… Comp… MS     F15    Rejected (7, 4, 2015)        1428379200
    ##  9 Univers… Comp… PhD    F15    Other    (16, 4, 2015)       1429156800
    ## 10 Univers… Comp… PhD    F15    Other    (16, 4, 2015)       1429156800
    ## # … with 1,081 more rows, and 11 more variables: ugrad_gpa <dbl>,
    ## #   gre_verbal <dbl>, gre_quant <dbl>, gre_writing <dbl>,
    ## #   is_new_gre <lgl>, status <chr>, comments <chr>, season1 <chr>,
    ## #   decision1 <lgl>, GRE_Total <dbl>, gre_total <dbl>
…
    ## # A tibble: 0 x 13
    ## # … with 13 variables: decision1 <lgl>, ugrad_gpa <dbl>, GRE_Total <dbl>,
    ## #   gre_writing <dbl>, status <chr>, .fitted <dbl>, .se.fit <dbl>,
    ## #   .resid <dbl>, .hat <dbl>, .sigma <dbl>, .cooksd <dbl>,
    ## #   .std.resid <dbl>, index <int>

``` r
#Correlation matrix
library(Hmisc)
grad_noNA = grad %>% filter(is.na(ugrad_gpa) == FALSE, is.na(gre_verbal) ==FALSE,  is.na(gre_quant) ==FALSE, is.na(gre_writing) ==FALSE)
(grad_noNA = grad_noNA %>% mutate(gre_total = gre_verbal + gre_quant))
```

    ## # A tibble: 1,091 x 18
    ##    uni_name major degree season decision decision_date decision_timest…
    ##    <chr>    <chr> <chr>  <chr>  <chr>    <chr>                    <dbl>
    ##  1 Purdue … (Com… MS     S16    Rejected (2, 11, 2015)       1446440400
    ##  2 Univers… Comp… MS     S16    Accepted (28, 9, 2015)       1443412800
    ##  3 Univers… (Com… MS     F15    Rejected (24, 5, 2015)       1432440000
    ##  4 Carnegi… ( EC… MS     F15    Other    (27, 6, 2015)       1435377600
    ##  5 Carnegi… Elec… MS     F15    Accepted (2, 6, 2015)        1433217600
    ##  6 Univers… Elec… MS     F15    Accepted (14, 4, 2015)       1428984000
    ##  7 Univers… Comp… PhD    F15    Other    (20, 4, 2015)       1429502400
    ##  8 Cornell… Comp… MS     F15    Rejected (7, 4, 2015)        1428379200
    ##  9 Univers… Comp… PhD    F15    Other    (16, 4, 2015)       1429156800
    ## 10 Univers… Comp… PhD    F15    Other    (16, 4, 2015)       1429156800
    ## # … with 1,081 more rows, and 11 more variables: ugrad_gpa <dbl>,
    ## #   gre_verbal <dbl>, gre_quant <dbl>, gre_writing <dbl>,
    ## #   is_new_gre <lgl>, status <chr>, comments <chr>, season1 <chr>,
    ## #   decision1 <lgl>, GRE_Total <dbl>, gre_total <dbl>
…
