…
      major=col_character(),
      degree=col_character(),
      season=col_character(),
      decision=col_character(),
      decision_date=col_character(),
      decision_timestamp=col_double(),
      ugrad_gpa=col_double(),
      gre_verbal=col_double(),
      gre_quant=col_double(),
      gre_writing=col_double(),
      is_new_gre=col_logical(),
      status=col_character())))
```

    ## # A tibble: 345,303 x 13
    ##    uni_name major degree season decision decision_date decision_timest…
    ##    <chr>    <chr> <chr>  <chr>  <chr>    <chr>                    <dbl>
    ##  1 Univers… Ms. … MS     S16    Accepted (5, 11, 2015)       1446699600
    ##  2 Vanderb… Educ… MS     F16    Other    <NA>                        NA
    ##  3 Univers… Publ… MS     F16    Accepted (16, 11, 201…       1447650000
    ##  4 Tufts U… Comp… PhD    S16    Accepted (16, 11, 201…       1447650000
    ##  5 Univers… Theo… MS     F16    Accepted (16, 11, 201…       1447650000
    ##  6 Univers… Mast… MS     S16    Rejected (14, 11, 201…       1447477200
    ##  7 Univers… Publ… MS     F16    Accepted (12, 11, 201…       1447304400
    ##  8 Tufts U… MALD  MS     S16    Accepted (7, 11, 2015)       1446872400
    ##  9 New Yor… Fina… MS     S16    Accepted (15, 11, 201…       1447563600
    ## 10 Appalac… Comm… MS     S16    Accepted (13, 11, 201…       1447390800
    ## # ... with 345,293 more rows, and 6 more variables: ugrad_gpa <dbl>,
    ## #   gre_verbal <dbl>, gre_quant <dbl>, gre_writing <dbl>,
    ## #   is_new_gre <lgl>, status <chr>
…
As mentioned previously, we drop variables 'gre\_subject','rowid','comments', 'decision\_method', 'post\_data', and 'post\_timestamp'. Aside from this we have no problems regarding data import. While the dataset has some missing data, we keep all data for analyzing variation of single variables.

Variation of Single Variables:
------------------------------

First we plot counts for the most popular grad schools and programs are.

``` r
grad <- grad %>% filter(str_detect(major, "Computer")|str_detect(major, "computer"))
(top10 <- grad %>% group_by(uni_name) %>% count(uni_name) %>% arrange(desc(n)))
```

    ## # A tibble: 416 x 2
    ## # Groups:   uni_name [416]
    ##    uni_name                                            n
    ##    <chr>                                           <int>
    ##  1 Carnegie Mellon University (CMU)                 1414
    ##  2 Georgia Institute Of Technology (GTech)           985
    ##  3 University Of California, San Diego (UCSD)        954
    ##  4 University Of Illinois, Urbana-Champaign (UIUC)   954
    ##  5 Stanford University                               914
    ##  6 University Of California, Berkeley (UCB)          844
    ##  7 Purdue University                                 745
    ##  8 University Of Washington, Seattle (UW)            713
    ##  9 University Of Texas, Austin (UT Austin)           706
    ## 10 Cornell University                                674
    ## # ... with 406 more rows

``` r
grad %>% group_by(uni_name,major) %>% count(uni_name, major) %>% arrange(desc(n))
```

    ## # A tibble: 2,749 x 3
    ## # Groups:   uni_name, major [2,749]
    ##    uni_name                                        major                n
    ##    <chr>                                           <chr>            <int>
    ##  1 Carnegie Mellon University (CMU)                Computer Science   776
    ##  2 Stanford University                             Computer Science   765
    ##  3 Georgia Institute Of Technology (GTech)         Computer Science   610
    ##  4 Columbia University                             Computer Science   585
    ##  5 University Of Illinois, Urbana-Champaign (UIUC) Computer Science   582
    ##  6 University Of Washington, Seattle (UW)          Computer Science   581
    ##  7 University Of California, San Diego (UCSD)      Computer Science   530
    ##  8 University Of California, Berkeley (UCB)        Computer Science   521
    ##  9 University Of California, Los Angeles (UCLA)    Computer Science   498
    ## 10 Cornell University                              Computer Science   478
    ## # ... with 2,739 more rows
…
