…
      major=col_character(),
      degree=col_character(),
      season=col_character(),
      decision=col_character(),
      decision_date=col_character(),
      decision_timestamp=col_double(),
      ugrad_gpa=col_double(),
      gre_verbal=col_double(),
      gre_quant=col_double(),
      gre_writing=col_double(),
      is_new_gre=col_logical(),
      status=col_character())))
```

    ## # A tibble: 345,303 x 13
    ##    uni_name major degree season decision decision_date decision_timest…
    ##    <chr>    <chr> <chr>  <chr>  <chr>    <chr>                    <dbl>
    ##  1 Univers… Ms. … MS     S16    Accepted (5, 11, 2015)       1446699600
    ##  2 Vanderb… Educ… MS     F16    Other    <NA>                        NA
    ##  3 Univers… Publ… MS     F16    Accepted (16, 11, 201…       1447650000
    ##  4 Tufts U… Comp… PhD    S16    Accepted (16, 11, 201…       1447650000
    ##  5 Univers… Theo… MS     F16    Accepted (16, 11, 201…       1447650000
    ##  6 Univers… Mast… MS     S16    Rejected (14, 11, 201…       1447477200
    ##  7 Univers… Publ… MS     F16    Accepted (12, 11, 201…       1447304400
    ##  8 Tufts U… MALD  MS     S16    Accepted (7, 11, 2015)       1446872400
    ##  9 New Yor… Fina… MS     S16    Accepted (15, 11, 201…       1447563600
    ## 10 Appalac… Comm… MS     S16    Accepted (13, 11, 201…       1447390800
    ## # … with 345,293 more rows, and 6 more variables: ugrad_gpa <dbl>,
    ## #   gre_verbal <dbl>, gre_quant <dbl>, gre_writing <dbl>,
    ## #   is_new_gre <lgl>, status <chr>
…
    ## [1] row      col      expected actual  
    ## <0 rows> (or 0-length row.names)

As mentioned previously, we drop variables 'gre\_subject','rowid','comments', 'decision\_method', 'post\_data', and 'post\_timestamp'. Aside from this we have no problems regarding data import. While the dataset has some missing data, we keep all data for analyzing variation of single variables.

Variation of Single Variables:
------------------------------

First we plot counts for the most popular grad schools and programs are.

``` r
grad %>% group_by(uni_name) %>% count(uni_name) %>% arrange(desc(n))
```

    ## # A tibble: 4,535 x 2
    ## # Groups:   uni_name [4,535]
    ##    uni_name                                         n
    ##    <chr>                                        <int>
    ##  1 Columbia University                          10901
    ##  2 Stanford University                           9071
    ##  3 University Of California, Berkeley (UCB)      7796
    ##  4 University Of Michigan, Ann Arbor (UMich)     7585
    ##  5 Cornell University                            6983
    ##  6 University Of California, Los Angeles (UCLA)  6788
    ##  7 Harvard University                            6587
    ##  8 University Of Washington, Seattle (UW)        6507
    ##  9 New York University (NYU)                     6291
    ## 10 University Of Pennsylvania (UPenn)            6043
    ## # … with 4,525 more rows

``` r
grad %>% group_by(uni_name,major) %>% count(uni_name, major) %>% arrange(desc(n))
```

    ## # A tibble: 73,296 x 3
    ## # Groups:   uni_name, major [73,296]
    ##    uni_name                                      major                    n
    ##    <chr>                                         <chr>                <int>
    ##  1 Carnegie Mellon University (CMU)              Computer Science       776
    ##  2 Stanford University                           Computer Science       765
    ##  3 Georgia Institute Of Technology (GTech)       Computer Science       610
    ##  4 Columbia University                           Computer Science       585
    ##  5 University Of Illinois, Urbana-Champaign (UI… Computer Science       582
    ##  6 University Of Washington, Seattle (UW)        Computer Science       581
    ##  7 Stanford University                           Electrical Engineer…   559
    ##  8 Boston University (BU)                        Economics              553
    ##  9 University Of California, San Diego (UCSD)    Computer Science       530
    ## 10 Columbia University                           Economics              523
    ## # … with 73,286 more rows

``` r
school <- c("Harvard University", "Massachusetts Institute Of Technology (MIT)", "Princeton University", "Stanford University", "University Of California, Berkeley (UCB)", "Yale University", "Northwestern University", "University Of Chicago (UChicago)", "Columbia University", "University Of Pennsylvania (UPenn)")


(grad <- grad %>% filter(uni_name %in% school) %>% filter(major == "Economics"))
```

    ## # A tibble: 3,964 x 13
    ##    uni_name major degree season decision decision_date decision_timest…
    ##    <chr>    <chr> <chr>  <chr>  <chr>    <chr>                    <dbl>
    ##  1 Columbi… Econ… MS     F15    Accepted (18, 5, 2015)       1431921600
    ##  2 Columbi… Econ… MS     F15    Accepted (8, 5, 2015)        1431057600
    ##  3 Columbi… Econ… MS     F15    Rejected (23, 4, 2015)       1429761600
    ##  4 Columbi… Econ… MS     F15    Accepted (14, 5, 2015)       1431576000
    ##  5 Columbi… Econ… MS     F15    Rejected (29, 4, 2015)       1430280000
    ##  6 Columbi… Econ… MS     F15    Rejected (29, 4, 2015)       1430280000
    ##  7 Columbi… Econ… MS     F15    Rejected (29, 4, 2015)       1430280000
    ##  8 Columbi… Econ… MS     F15    Rejected (29, 4, 2015)       1430280000
    ##  9 Columbi… Econ… MS     F15    Rejected (29, 4, 2015)       1430280000
    ## 10 Columbi… Econ… MS     F15    Rejected (28, 4, 2015)       1430193600
    ## # … with 3,954 more rows, and 6 more variables: ugrad_gpa <dbl>,
    ## #   gre_verbal <dbl>, gre_quant <dbl>, gre_writing <dbl>,
    ## #   is_new_gre <lgl>, status <chr>
…
